{
  "explorer.icon.enableNerdfont": true,
  "coc.preferences.formatOnSaveFiletypes": [
    "php",
    "javascript",
    "typescript",
    "yaml",
    "css",
    "json",
    "html",
    "python",
    "java",
    "markdown",
    "vue",
    "csharp"
  ],
  "coc.preferences.formatOnTypeFiletypes": [
    "php",
    "javascript",
    "typescript",
    "yaml",
    "css",
    "json",
    "html",
    "python",
    "java",
    "markdown",
    "vue",
    "csharp"
  ],
  "explorer.width": 40,
  "coc.preferences.colorSupport": true
}
